452-56-5042,Federico Borme,1,694-03-2010
367-21-9548,Lorenzo Malavolta,2,522-11-3446
767-72-0633,Anna Stefanello,3,320-40-4426
502-25-7561,Beatrice Bolognato,4,416-34-2180
305-74-7983,Alice Cesco,1,694-03-2010
645-01-2964,Chiara Durante,2,522-11-3446
076-50-2347,Davide Montesi,3,320-40-4426
478-34-8913,Gianluca Condotta,4,416-34-2180
694-03-2010,Greta Crivellaro,1,594-10-6147
522-11-3446,Miriam Mizgur,2,594-10-6147
320-40-4426,Riccardo Lipari ,3,248-01-9876
416-34-2180,Simone Gasparini,4,248-01-9876
248-01-9876,Lucia Ragazzo,0,
594-10-6147,Flaviu Enache,0,
